<?xml version="1.0" encoding="utf-8"  standalone="no"?>
<svg 
 width="1000" height="400"
 viewBox="0 0 1000 400"
 xmlns="http://www.w3.org/2000/svg"
 xmlns:xlink="http://www.w3.org/1999/xlink"
>

<title>Gnuplot</title>
<desc>Produced by GNUPLOT 5.2 patchlevel 8 </desc>

<g id="gnuplot_canvas">

<rect x="0" y="0" width="1000" height="400" fill="none"/>
<defs>

	<circle id='gpDot' r='0.5' stroke-width='0.5' stroke='currentColor'/>
	<path id='gpPt0' stroke-width='0.222' stroke='currentColor' d='M-1,0 h2 M0,-1 v2'/>
	<path id='gpPt1' stroke-width='0.222' stroke='currentColor' d='M-1,-1 L1,1 M1,-1 L-1,1'/>
	<path id='gpPt2' stroke-width='0.222' stroke='currentColor' d='M-1,0 L1,0 M0,-1 L0,1 M-1,-1 L1,1 M-1,1 L1,-1'/>
	<rect id='gpPt3' stroke-width='0.222' stroke='currentColor' x='-1' y='-1' width='2' height='2'/>
	<rect id='gpPt4' stroke-width='0.222' stroke='currentColor' fill='currentColor' x='-1' y='-1' width='2' height='2'/>
	<circle id='gpPt5' stroke-width='0.222' stroke='currentColor' cx='0' cy='0' r='1'/>
	<use xlink:href='#gpPt5' id='gpPt6' fill='currentColor' stroke='none'/>
	<path id='gpPt7' stroke-width='0.222' stroke='currentColor' d='M0,-1.33 L-1.33,0.67 L1.33,0.67 z'/>
	<use xlink:href='#gpPt7' id='gpPt8' fill='currentColor' stroke='none'/>
	<use xlink:href='#gpPt7' id='gpPt9' stroke='currentColor' transform='rotate(180)'/>
	<use xlink:href='#gpPt9' id='gpPt10' fill='currentColor' stroke='none'/>
	<use xlink:href='#gpPt3' id='gpPt11' stroke='currentColor' transform='rotate(45)'/>
	<use xlink:href='#gpPt11' id='gpPt12' fill='currentColor' stroke='none'/>
	<path id='gpPt13' stroke-width='0.222' stroke='currentColor' d='M0,1.330 L1.265,0.411 L0.782,-1.067 L-0.782,-1.076 L-1.265,0.411 z'/>
	<use xlink:href='#gpPt13' id='gpPt14' fill='currentColor' stroke='none'/>
	<filter id='textbox' filterUnits='objectBoundingBox' x='0' y='0' height='1' width='1'>
	  <feFlood flood-color='white' flood-opacity='1' result='bgnd'/>
	  <feComposite in='SourceGraphic' in2='bgnd' operator='atop'/>
	</filter>
	<filter id='greybox' filterUnits='objectBoundingBox' x='0' y='0' height='1' width='1'>
	  <feFlood flood-color='lightgrey' flood-opacity='1' result='grey'/>
	  <feComposite in='SourceGraphic' in2='grey' operator='atop'/>
	</filter>
</defs>
<g fill="none" color="white" stroke="currentColor" stroke-width="1.00" stroke-linecap="butt" stroke-linejoin="miter">
</g>
<g fill="none" color="black" stroke="currentColor" stroke-width="1.00" stroke-linecap="butt" stroke-linejoin="miter">
</g>
<g fill="none" color="black" stroke="black" stroke-width="0.50" stroke-linecap="butt" stroke-linejoin="miter">
</g>
<g fill="none" color="gray" stroke="currentColor" stroke-width="0.50" stroke-linecap="butt" stroke-linejoin="miter">
	<path stroke='gray' stroke-dasharray='2,4' class="gridline"  d='M88.5,342.4 L975.0,342.4  '/></g>
<g fill="none" color="gray" stroke="gray" stroke-width="1.00" stroke-linecap="butt" stroke-linejoin="miter">
</g>
<g fill="none" color="black" stroke="currentColor" stroke-width="1.00" stroke-linecap="butt" stroke-linejoin="miter">
	<path stroke='black'  d='M88.5,342.4 L97.5,342.4 M975.0,342.4 L966.0,342.4  '/>	<g transform="translate(80.2,346.3)" stroke="none" fill="black" font-family="Arial" font-size="12.00"  text-anchor="end">
		<text><tspan font-family="Arial" > 0</tspan></text>
	</g>
</g>
<g fill="none" color="black" stroke="currentColor" stroke-width="1.00" stroke-linecap="butt" stroke-linejoin="miter">
</g>
<g fill="none" color="black" stroke="black" stroke-width="0.50" stroke-linecap="butt" stroke-linejoin="miter">
</g>
<g fill="none" color="gray" stroke="currentColor" stroke-width="0.50" stroke-linecap="butt" stroke-linejoin="miter">
	<path stroke='gray' stroke-dasharray='2,4' class="gridline"  d='M88.5,294.3 L975.0,294.3  '/></g>
<g fill="none" color="gray" stroke="gray" stroke-width="1.00" stroke-linecap="butt" stroke-linejoin="miter">
</g>
<g fill="none" color="black" stroke="currentColor" stroke-width="1.00" stroke-linecap="butt" stroke-linejoin="miter">
	<path stroke='black'  d='M88.5,294.3 L97.5,294.3 M975.0,294.3 L966.0,294.3  '/>	<g transform="translate(80.2,298.2)" stroke="none" fill="black" font-family="Arial" font-size="12.00"  text-anchor="end">
		<text><tspan font-family="Arial" > 0.005</tspan></text>
	</g>
</g>
<g fill="none" color="black" stroke="currentColor" stroke-width="1.00" stroke-linecap="butt" stroke-linejoin="miter">
</g>
<g fill="none" color="black" stroke="black" stroke-width="0.50" stroke-linecap="butt" stroke-linejoin="miter">
</g>
<g fill="none" color="gray" stroke="currentColor" stroke-width="0.50" stroke-linecap="butt" stroke-linejoin="miter">
	<path stroke='gray' stroke-dasharray='2,4' class="gridline"  d='M88.5,246.3 L975.0,246.3  '/></g>
<g fill="none" color="gray" stroke="gray" stroke-width="1.00" stroke-linecap="butt" stroke-linejoin="miter">
</g>
<g fill="none" color="black" stroke="currentColor" stroke-width="1.00" stroke-linecap="butt" stroke-linejoin="miter">
	<path stroke='black'  d='M88.5,246.3 L97.5,246.3 M975.0,246.3 L966.0,246.3  '/>	<g transform="translate(80.2,250.2)" stroke="none" fill="black" font-family="Arial" font-size="12.00"  text-anchor="end">
		<text><tspan font-family="Arial" > 0.01</tspan></text>
	</g>
</g>
<g fill="none" color="black" stroke="currentColor" stroke-width="1.00" stroke-linecap="butt" stroke-linejoin="miter">
</g>
<g fill="none" color="black" stroke="black" stroke-width="0.50" stroke-linecap="butt" stroke-linejoin="miter">
</g>
<g fill="none" color="gray" stroke="currentColor" stroke-width="0.50" stroke-linecap="butt" stroke-linejoin="miter">
	<path stroke='gray' stroke-dasharray='2,4' class="gridline"  d='M88.5,198.2 L975.0,198.2  '/></g>
<g fill="none" color="gray" stroke="gray" stroke-width="1.00" stroke-linecap="butt" stroke-linejoin="miter">
</g>
<g fill="none" color="black" stroke="currentColor" stroke-width="1.00" stroke-linecap="butt" stroke-linejoin="miter">
	<path stroke='black'  d='M88.5,198.2 L97.5,198.2 M975.0,198.2 L966.0,198.2  '/>	<g transform="translate(80.2,202.1)" stroke="none" fill="black" font-family="Arial" font-size="12.00"  text-anchor="end">
		<text><tspan font-family="Arial" > 0.015</tspan></text>
	</g>
</g>
<g fill="none" color="black" stroke="currentColor" stroke-width="1.00" stroke-linecap="butt" stroke-linejoin="miter">
</g>
<g fill="none" color="black" stroke="black" stroke-width="0.50" stroke-linecap="butt" stroke-linejoin="miter">
</g>
<g fill="none" color="gray" stroke="currentColor" stroke-width="0.50" stroke-linecap="butt" stroke-linejoin="miter">
	<path stroke='gray' stroke-dasharray='2,4' class="gridline"  d='M88.5,150.2 L975.0,150.2  '/></g>
<g fill="none" color="gray" stroke="gray" stroke-width="1.00" stroke-linecap="butt" stroke-linejoin="miter">
</g>
<g fill="none" color="black" stroke="currentColor" stroke-width="1.00" stroke-linecap="butt" stroke-linejoin="miter">
	<path stroke='black'  d='M88.5,150.2 L97.5,150.2 M975.0,150.2 L966.0,150.2  '/>	<g transform="translate(80.2,154.1)" stroke="none" fill="black" font-family="Arial" font-size="12.00"  text-anchor="end">
		<text><tspan font-family="Arial" > 0.02</tspan></text>
	</g>
</g>
<g fill="none" color="black" stroke="currentColor" stroke-width="1.00" stroke-linecap="butt" stroke-linejoin="miter">
</g>
<g fill="none" color="black" stroke="black" stroke-width="0.50" stroke-linecap="butt" stroke-linejoin="miter">
</g>
<g fill="none" color="gray" stroke="currentColor" stroke-width="0.50" stroke-linecap="butt" stroke-linejoin="miter">
	<path stroke='gray' stroke-dasharray='2,4' class="gridline"  d='M88.5,102.1 L975.0,102.1  '/></g>
<g fill="none" color="gray" stroke="gray" stroke-width="1.00" stroke-linecap="butt" stroke-linejoin="miter">
</g>
<g fill="none" color="black" stroke="currentColor" stroke-width="1.00" stroke-linecap="butt" stroke-linejoin="miter">
	<path stroke='black'  d='M88.5,102.1 L97.5,102.1 M975.0,102.1 L966.0,102.1  '/>	<g transform="translate(80.2,106.0)" stroke="none" fill="black" font-family="Arial" font-size="12.00"  text-anchor="end">
		<text><tspan font-family="Arial" > 0.025</tspan></text>
	</g>
</g>
<g fill="none" color="black" stroke="currentColor" stroke-width="1.00" stroke-linecap="butt" stroke-linejoin="miter">
</g>
<g fill="none" color="black" stroke="black" stroke-width="0.50" stroke-linecap="butt" stroke-linejoin="miter">
</g>
<g fill="none" color="gray" stroke="currentColor" stroke-width="0.50" stroke-linecap="butt" stroke-linejoin="miter">
	<path stroke='gray' stroke-dasharray='2,4' class="gridline"  d='M88.5,54.1 L975.0,54.1  '/></g>
<g fill="none" color="gray" stroke="gray" stroke-width="1.00" stroke-linecap="butt" stroke-linejoin="miter">
</g>
<g fill="none" color="black" stroke="currentColor" stroke-width="1.00" stroke-linecap="butt" stroke-linejoin="miter">
	<path stroke='black'  d='M88.5,54.1 L97.5,54.1 M975.0,54.1 L966.0,54.1  '/>	<g transform="translate(80.2,58.0)" stroke="none" fill="black" font-family="Arial" font-size="12.00"  text-anchor="end">
		<text><tspan font-family="Arial" > 0.03</tspan></text>
	</g>
</g>
<g fill="none" color="black" stroke="currentColor" stroke-width="1.00" stroke-linecap="butt" stroke-linejoin="miter">
</g>
<g fill="none" color="black" stroke="black" stroke-width="0.50" stroke-linecap="butt" stroke-linejoin="miter">
</g>
<g fill="none" color="gray" stroke="currentColor" stroke-width="0.50" stroke-linecap="butt" stroke-linejoin="miter">
	<path stroke='gray' stroke-dasharray='2,4' class="gridline"  d='M88.5,342.4 L88.5,54.1  '/></g>
<g fill="none" color="gray" stroke="gray" stroke-width="1.00" stroke-linecap="butt" stroke-linejoin="miter">
</g>
<g fill="none" color="black" stroke="currentColor" stroke-width="1.00" stroke-linecap="butt" stroke-linejoin="miter">
	<path stroke='black'  d='M88.5,342.4 L88.5,333.4 M88.5,54.1 L88.5,63.1  '/>	<g transform="translate(88.5,364.3)" stroke="none" fill="black" font-family="Arial" font-size="12.00"  text-anchor="middle">
		<text><tspan font-family="Arial" > 0</tspan></text>
	</g>
</g>
<g fill="none" color="black" stroke="currentColor" stroke-width="1.00" stroke-linecap="butt" stroke-linejoin="miter">
</g>
<g fill="none" color="black" stroke="black" stroke-width="0.50" stroke-linecap="butt" stroke-linejoin="miter">
</g>
<g fill="none" color="gray" stroke="currentColor" stroke-width="0.50" stroke-linecap="butt" stroke-linejoin="miter">
	<path stroke='gray' stroke-dasharray='2,4' class="gridline"  d='M199.3,342.4 L199.3,54.1  '/></g>
<g fill="none" color="gray" stroke="gray" stroke-width="1.00" stroke-linecap="butt" stroke-linejoin="miter">
</g>
<g fill="none" color="black" stroke="currentColor" stroke-width="1.00" stroke-linecap="butt" stroke-linejoin="miter">
	<path stroke='black'  d='M199.3,342.4 L199.3,333.4 M199.3,54.1 L199.3,63.1  '/>	<g transform="translate(199.3,364.3)" stroke="none" fill="black" font-family="Arial" font-size="12.00"  text-anchor="middle">
		<text><tspan font-family="Arial" > 10</tspan></text>
	</g>
</g>
<g fill="none" color="black" stroke="currentColor" stroke-width="1.00" stroke-linecap="butt" stroke-linejoin="miter">
</g>
<g fill="none" color="black" stroke="black" stroke-width="0.50" stroke-linecap="butt" stroke-linejoin="miter">
</g>
<g fill="none" color="gray" stroke="currentColor" stroke-width="0.50" stroke-linecap="butt" stroke-linejoin="miter">
	<path stroke='gray' stroke-dasharray='2,4' class="gridline"  d='M310.1,342.4 L310.1,54.1  '/></g>
<g fill="none" color="gray" stroke="gray" stroke-width="1.00" stroke-linecap="butt" stroke-linejoin="miter">
</g>
<g fill="none" color="black" stroke="currentColor" stroke-width="1.00" stroke-linecap="butt" stroke-linejoin="miter">
	<path stroke='black'  d='M310.1,342.4 L310.1,333.4 M310.1,54.1 L310.1,63.1  '/>	<g transform="translate(310.1,364.3)" stroke="none" fill="black" font-family="Arial" font-size="12.00"  text-anchor="middle">
		<text><tspan font-family="Arial" > 20</tspan></text>
	</g>
</g>
<g fill="none" color="black" stroke="currentColor" stroke-width="1.00" stroke-linecap="butt" stroke-linejoin="miter">
</g>
<g fill="none" color="black" stroke="black" stroke-width="0.50" stroke-linecap="butt" stroke-linejoin="miter">
</g>
<g fill="none" color="gray" stroke="currentColor" stroke-width="0.50" stroke-linecap="butt" stroke-linejoin="miter">
	<path stroke='gray' stroke-dasharray='2,4' class="gridline"  d='M420.9,342.4 L420.9,54.1  '/></g>
<g fill="none" color="gray" stroke="gray" stroke-width="1.00" stroke-linecap="butt" stroke-linejoin="miter">
</g>
<g fill="none" color="black" stroke="currentColor" stroke-width="1.00" stroke-linecap="butt" stroke-linejoin="miter">
	<path stroke='black'  d='M420.9,342.4 L420.9,333.4 M420.9,54.1 L420.9,63.1  '/>	<g transform="translate(420.9,364.3)" stroke="none" fill="black" font-family="Arial" font-size="12.00"  text-anchor="middle">
		<text><tspan font-family="Arial" > 30</tspan></text>
	</g>
</g>
<g fill="none" color="black" stroke="currentColor" stroke-width="1.00" stroke-linecap="butt" stroke-linejoin="miter">
</g>
<g fill="none" color="black" stroke="black" stroke-width="0.50" stroke-linecap="butt" stroke-linejoin="miter">
</g>
<g fill="none" color="gray" stroke="currentColor" stroke-width="0.50" stroke-linecap="butt" stroke-linejoin="miter">
	<path stroke='gray' stroke-dasharray='2,4' class="gridline"  d='M531.8,342.4 L531.8,54.1  '/></g>
<g fill="none" color="gray" stroke="gray" stroke-width="1.00" stroke-linecap="butt" stroke-linejoin="miter">
</g>
<g fill="none" color="black" stroke="currentColor" stroke-width="1.00" stroke-linecap="butt" stroke-linejoin="miter">
	<path stroke='black'  d='M531.8,342.4 L531.8,333.4 M531.8,54.1 L531.8,63.1  '/>	<g transform="translate(531.8,364.3)" stroke="none" fill="black" font-family="Arial" font-size="12.00"  text-anchor="middle">
		<text><tspan font-family="Arial" > 40</tspan></text>
	</g>
</g>
<g fill="none" color="black" stroke="currentColor" stroke-width="1.00" stroke-linecap="butt" stroke-linejoin="miter">
</g>
<g fill="none" color="black" stroke="black" stroke-width="0.50" stroke-linecap="butt" stroke-linejoin="miter">
</g>
<g fill="none" color="gray" stroke="currentColor" stroke-width="0.50" stroke-linecap="butt" stroke-linejoin="miter">
	<path stroke='gray' stroke-dasharray='2,4' class="gridline"  d='M642.6,342.4 L642.6,54.1  '/></g>
<g fill="none" color="gray" stroke="gray" stroke-width="1.00" stroke-linecap="butt" stroke-linejoin="miter">
</g>
<g fill="none" color="black" stroke="currentColor" stroke-width="1.00" stroke-linecap="butt" stroke-linejoin="miter">
	<path stroke='black'  d='M642.6,342.4 L642.6,333.4 M642.6,54.1 L642.6,63.1  '/>	<g transform="translate(642.6,364.3)" stroke="none" fill="black" font-family="Arial" font-size="12.00"  text-anchor="middle">
		<text><tspan font-family="Arial" > 50</tspan></text>
	</g>
</g>
<g fill="none" color="black" stroke="currentColor" stroke-width="1.00" stroke-linecap="butt" stroke-linejoin="miter">
</g>
<g fill="none" color="black" stroke="black" stroke-width="0.50" stroke-linecap="butt" stroke-linejoin="miter">
</g>
<g fill="none" color="gray" stroke="currentColor" stroke-width="0.50" stroke-linecap="butt" stroke-linejoin="miter">
	<path stroke='gray' stroke-dasharray='2,4' class="gridline"  d='M753.4,342.4 L753.4,54.1  '/></g>
<g fill="none" color="gray" stroke="gray" stroke-width="1.00" stroke-linecap="butt" stroke-linejoin="miter">
</g>
<g fill="none" color="black" stroke="currentColor" stroke-width="1.00" stroke-linecap="butt" stroke-linejoin="miter">
	<path stroke='black'  d='M753.4,342.4 L753.4,333.4 M753.4,54.1 L753.4,63.1  '/>	<g transform="translate(753.4,364.3)" stroke="none" fill="black" font-family="Arial" font-size="12.00"  text-anchor="middle">
		<text><tspan font-family="Arial" > 60</tspan></text>
	</g>
</g>
<g fill="none" color="black" stroke="currentColor" stroke-width="1.00" stroke-linecap="butt" stroke-linejoin="miter">
</g>
<g fill="none" color="black" stroke="black" stroke-width="0.50" stroke-linecap="butt" stroke-linejoin="miter">
</g>
<g fill="none" color="gray" stroke="currentColor" stroke-width="0.50" stroke-linecap="butt" stroke-linejoin="miter">
	<path stroke='gray' stroke-dasharray='2,4' class="gridline"  d='M864.2,342.4 L864.2,54.1  '/></g>
<g fill="none" color="gray" stroke="gray" stroke-width="1.00" stroke-linecap="butt" stroke-linejoin="miter">
</g>
<g fill="none" color="black" stroke="currentColor" stroke-width="1.00" stroke-linecap="butt" stroke-linejoin="miter">
	<path stroke='black'  d='M864.2,342.4 L864.2,333.4 M864.2,54.1 L864.2,63.1  '/>	<g transform="translate(864.2,364.3)" stroke="none" fill="black" font-family="Arial" font-size="12.00"  text-anchor="middle">
		<text><tspan font-family="Arial" > 70</tspan></text>
	</g>
</g>
<g fill="none" color="black" stroke="currentColor" stroke-width="1.00" stroke-linecap="butt" stroke-linejoin="miter">
</g>
<g fill="none" color="black" stroke="black" stroke-width="0.50" stroke-linecap="butt" stroke-linejoin="miter">
</g>
<g fill="none" color="gray" stroke="currentColor" stroke-width="0.50" stroke-linecap="butt" stroke-linejoin="miter">
	<path stroke='gray' stroke-dasharray='2,4' class="gridline"  d='M975.0,342.4 L975.0,54.1  '/></g>
<g fill="none" color="gray" stroke="gray" stroke-width="1.00" stroke-linecap="butt" stroke-linejoin="miter">
</g>
<g fill="none" color="black" stroke="currentColor" stroke-width="1.00" stroke-linecap="butt" stroke-linejoin="miter">
	<path stroke='black'  d='M975.0,342.4 L975.0,333.4 M975.0,54.1 L975.0,63.1  '/>	<g transform="translate(975.0,364.3)" stroke="none" fill="black" font-family="Arial" font-size="12.00"  text-anchor="middle">
		<text><tspan font-family="Arial" > 80</tspan></text>
	</g>
</g>
<g fill="none" color="black" stroke="currentColor" stroke-width="1.00" stroke-linecap="butt" stroke-linejoin="miter">
</g>
<g fill="none" color="black" stroke="currentColor" stroke-width="1.00" stroke-linecap="butt" stroke-linejoin="miter">
	<path stroke='rgb(  0,   0,   0)'  d='M88.5,342.4 L975.0,342.4  '/></g>
<g fill="none" color="black" stroke="currentColor" stroke-width="1.00" stroke-linecap="butt" stroke-linejoin="miter">
	<path stroke='black'  d='M88.5,54.1 L88.5,342.4 L975.0,342.4 L975.0,54.1 L88.5,54.1 Z  '/></g>
<g fill="none" color="black" stroke="currentColor" stroke-width="1.00" stroke-linecap="butt" stroke-linejoin="miter">
	<g transform="translate(19.0,198.3) rotate(270)" stroke="none" fill="black" font-family="Arial" font-size="12.00"  text-anchor="middle">
		<text><tspan font-family="Arial" >abs(f(k) - a(k))</tspan></text>
	</g>
</g>
<g fill="none" color="black" stroke="currentColor" stroke-width="1.00" stroke-linecap="butt" stroke-linejoin="miter">
	<g transform="translate(531.7,391.3)" stroke="none" fill="black" font-family="Arial" font-size="12.00"  text-anchor="middle">
		<text><tspan font-family="Arial" >k</tspan></text>
	</g>
</g>
<g fill="none" color="black" stroke="currentColor" stroke-width="1.00" stroke-linecap="butt" stroke-linejoin="miter">
	<g transform="translate(531.7,31.0)" stroke="none" fill="black" font-family="Arial" font-size="12.00"  text-anchor="middle">
		<text><tspan font-family="Arial" >Error(threshold=0.500)</tspan></text>
	</g>
</g>
<g fill="none" color="black" stroke="currentColor" stroke-width="1.00" stroke-linecap="butt" stroke-linejoin="miter">
</g>
	<g id="gnuplot_plot_1" ><title>gnuplot_plot_1</title>
<g fill="none" color="black" stroke="currentColor" stroke-width="1.00" stroke-linecap="butt" stroke-linejoin="miter">
	<use xlink:href='#gpPt6' transform='translate(88.5,92.5) scale(1.57)' color='rgb(  0,   0,   0)'/>
	<use xlink:href='#gpPt6' transform='translate(99.6,205.4) scale(1.57)' color='rgb(  0,   0,   0)'/>
	<use xlink:href='#gpPt6' transform='translate(110.7,298.8) scale(1.57)' color='rgb(  0,   0,   0)'/>
	<use xlink:href='#gpPt6' transform='translate(121.7,273.7) scale(1.57)' color='rgb(  0,   0,   0)'/>
	<use xlink:href='#gpPt6' transform='translate(132.8,320.8) scale(1.57)' color='rgb(  0,   0,   0)'/>
	<use xlink:href='#gpPt6' transform='translate(143.9,298.0) scale(1.57)' color='rgb(  0,   0,   0)'/>
	<use xlink:href='#gpPt6' transform='translate(155.0,326.9) scale(1.57)' color='rgb(  0,   0,   0)'/>
	<use xlink:href='#gpPt6' transform='translate(166.1,310.1) scale(1.57)' color='rgb(  0,   0,   0)'/>
	<use xlink:href='#gpPt6' transform='translate(177.2,329.3) scale(1.57)' color='rgb(  0,   0,   0)'/>
	<use xlink:href='#gpPt6' transform='translate(188.2,317.4) scale(1.57)' color='rgb(  0,   0,   0)'/>
	<use xlink:href='#gpPt6' transform='translate(199.3,330.5) scale(1.57)' color='rgb(  0,   0,   0)'/>
	<use xlink:href='#gpPt6' transform='translate(210.4,322.3) scale(1.57)' color='rgb(  0,   0,   0)'/>
	<use xlink:href='#gpPt6' transform='translate(221.5,331.2) scale(1.57)' color='rgb(  0,   0,   0)'/>
	<use xlink:href='#gpPt6' transform='translate(232.6,325.8) scale(1.57)' color='rgb(  0,   0,   0)'/>
	<use xlink:href='#gpPt6' transform='translate(243.6,331.6) scale(1.57)' color='rgb(  0,   0,   0)'/>
	<use xlink:href='#gpPt6' transform='translate(254.7,328.4) scale(1.57)' color='rgb(  0,   0,   0)'/>
	<use xlink:href='#gpPt6' transform='translate(265.8,331.9) scale(1.57)' color='rgb(  0,   0,   0)'/>
	<use xlink:href='#gpPt6' transform='translate(276.9,330.5) scale(1.57)' color='rgb(  0,   0,   0)'/>
	<use xlink:href='#gpPt6' transform='translate(288.0,332.1) scale(1.57)' color='rgb(  0,   0,   0)'/>
	<use xlink:href='#gpPt6' transform='translate(299.0,332.2) scale(1.57)' color='rgb(  0,   0,   0)'/>
	<use xlink:href='#gpPt6' transform='translate(310.1,332.2) scale(1.57)' color='rgb(  0,   0,   0)'/>
	<use xlink:href='#gpPt6' transform='translate(321.2,333.7) scale(1.57)' color='rgb(  0,   0,   0)'/>
	<use xlink:href='#gpPt6' transform='translate(332.3,332.3) scale(1.57)' color='rgb(  0,   0,   0)'/>
	<use xlink:href='#gpPt6' transform='translate(343.4,335.0) scale(1.57)' color='rgb(  0,   0,   0)'/>
	<use xlink:href='#gpPt6' transform='translate(354.5,332.4) scale(1.57)' color='rgb(  0,   0,   0)'/>
	<use xlink:href='#gpPt6' transform='translate(365.5,336.1) scale(1.57)' color='rgb(  0,   0,   0)'/>
	<use xlink:href='#gpPt6' transform='translate(376.6,332.4) scale(1.57)' color='rgb(  0,   0,   0)'/>
	<use xlink:href='#gpPt6' transform='translate(387.7,337.2) scale(1.57)' color='rgb(  0,   0,   0)'/>
	<use xlink:href='#gpPt6' transform='translate(398.8,332.5) scale(1.57)' color='rgb(  0,   0,   0)'/>
	<use xlink:href='#gpPt6' transform='translate(409.9,338.1) scale(1.57)' color='rgb(  0,   0,   0)'/>
	<use xlink:href='#gpPt6' transform='translate(420.9,332.6) scale(1.57)' color='rgb(  0,   0,   0)'/>
	<use xlink:href='#gpPt6' transform='translate(432.0,338.9) scale(1.57)' color='rgb(  0,   0,   0)'/>
	<use xlink:href='#gpPt6' transform='translate(443.1,332.6) scale(1.57)' color='rgb(  0,   0,   0)'/>
	<use xlink:href='#gpPt6' transform='translate(454.2,339.7) scale(1.57)' color='rgb(  0,   0,   0)'/>
	<use xlink:href='#gpPt6' transform='translate(465.3,332.6) scale(1.57)' color='rgb(  0,   0,   0)'/>
	<use xlink:href='#gpPt6' transform='translate(476.3,340.5) scale(1.57)' color='rgb(  0,   0,   0)'/>
	<use xlink:href='#gpPt6' transform='translate(487.4,332.5) scale(1.57)' color='rgb(  0,   0,   0)'/>
	<use xlink:href='#gpPt6' transform='translate(498.5,341.3) scale(1.57)' color='rgb(  0,   0,   0)'/>
	<use xlink:href='#gpPt6' transform='translate(509.6,332.6) scale(1.57)' color='rgb(  0,   0,   0)'/>
	<use xlink:href='#gpPt6' transform='translate(520.7,342.0) scale(1.57)' color='rgb(  0,   0,   0)'/>
	<use xlink:href='#gpPt6' transform='translate(531.8,332.6) scale(1.57)' color='rgb(  0,   0,   0)'/>
	<use xlink:href='#gpPt6' transform='translate(542.8,342.0) scale(1.57)' color='rgb(  0,   0,   0)'/>
	<use xlink:href='#gpPt6' transform='translate(553.9,332.6) scale(1.57)' color='rgb(  0,   0,   0)'/>
	<use xlink:href='#gpPt6' transform='translate(565.0,341.3) scale(1.57)' color='rgb(  0,   0,   0)'/>
	<use xlink:href='#gpPt6' transform='translate(576.1,332.6) scale(1.57)' color='rgb(  0,   0,   0)'/>
	<use xlink:href='#gpPt6' transform='translate(587.2,340.5) scale(1.57)' color='rgb(  0,   0,   0)'/>
	<use xlink:href='#gpPt6' transform='translate(598.2,332.6) scale(1.57)' color='rgb(  0,   0,   0)'/>
	<use xlink:href='#gpPt6' transform='translate(609.3,339.8) scale(1.57)' color='rgb(  0,   0,   0)'/>
	<use xlink:href='#gpPt6' transform='translate(620.4,332.6) scale(1.57)' color='rgb(  0,   0,   0)'/>
	<use xlink:href='#gpPt6' transform='translate(631.5,338.9) scale(1.57)' color='rgb(  0,   0,   0)'/>
	<use xlink:href='#gpPt6' transform='translate(642.6,332.5) scale(1.57)' color='rgb(  0,   0,   0)'/>
	<use xlink:href='#gpPt6' transform='translate(653.6,338.1) scale(1.57)' color='rgb(  0,   0,   0)'/>
	<use xlink:href='#gpPt6' transform='translate(664.7,332.5) scale(1.57)' color='rgb(  0,   0,   0)'/>
	<use xlink:href='#gpPt6' transform='translate(675.8,337.1) scale(1.57)' color='rgb(  0,   0,   0)'/>
	<use xlink:href='#gpPt6' transform='translate(686.9,332.5) scale(1.57)' color='rgb(  0,   0,   0)'/>
	<use xlink:href='#gpPt6' transform='translate(698.0,336.1) scale(1.57)' color='rgb(  0,   0,   0)'/>
	<use xlink:href='#gpPt6' transform='translate(709.1,332.4) scale(1.57)' color='rgb(  0,   0,   0)'/>
	<use xlink:href='#gpPt6' transform='translate(720.1,335.0) scale(1.57)' color='rgb(  0,   0,   0)'/>
	<use xlink:href='#gpPt6' transform='translate(731.2,332.3) scale(1.57)' color='rgb(  0,   0,   0)'/>
	<use xlink:href='#gpPt6' transform='translate(742.3,333.7) scale(1.57)' color='rgb(  0,   0,   0)'/>
	<use xlink:href='#gpPt6' transform='translate(753.4,332.2) scale(1.57)' color='rgb(  0,   0,   0)'/>
	<use xlink:href='#gpPt6' transform='translate(764.5,332.2) scale(1.57)' color='rgb(  0,   0,   0)'/>
	<use xlink:href='#gpPt6' transform='translate(775.5,332.1) scale(1.57)' color='rgb(  0,   0,   0)'/>
	<use xlink:href='#gpPt6' transform='translate(786.6,330.5) scale(1.57)' color='rgb(  0,   0,   0)'/>
	<use xlink:href='#gpPt6' transform='translate(797.7,331.9) scale(1.57)' color='rgb(  0,   0,   0)'/>
	<use xlink:href='#gpPt6' transform='translate(808.8,328.4) scale(1.57)' color='rgb(  0,   0,   0)'/>
	<use xlink:href='#gpPt6' transform='translate(819.9,331.6) scale(1.57)' color='rgb(  0,   0,   0)'/>
	<use xlink:href='#gpPt6' transform='translate(830.9,325.8) scale(1.57)' color='rgb(  0,   0,   0)'/>
	<use xlink:href='#gpPt6' transform='translate(842.0,331.2) scale(1.57)' color='rgb(  0,   0,   0)'/>
	<use xlink:href='#gpPt6' transform='translate(853.1,322.3) scale(1.57)' color='rgb(  0,   0,   0)'/>
	<use xlink:href='#gpPt6' transform='translate(864.2,330.5) scale(1.57)' color='rgb(  0,   0,   0)'/>
	<use xlink:href='#gpPt6' transform='translate(875.3,317.4) scale(1.57)' color='rgb(  0,   0,   0)'/>
	<use xlink:href='#gpPt6' transform='translate(886.4,329.3) scale(1.57)' color='rgb(  0,   0,   0)'/>
	<use xlink:href='#gpPt6' transform='translate(897.4,310.1) scale(1.57)' color='rgb(  0,   0,   0)'/>
	<use xlink:href='#gpPt6' transform='translate(908.5,326.8) scale(1.57)' color='rgb(  0,   0,   0)'/>
	<use xlink:href='#gpPt6' transform='translate(919.6,298.0) scale(1.57)' color='rgb(  0,   0,   0)'/>
	<use xlink:href='#gpPt6' transform='translate(930.7,320.8) scale(1.57)' color='rgb(  0,   0,   0)'/>
	<use xlink:href='#gpPt6' transform='translate(941.8,273.6) scale(1.57)' color='rgb(  0,   0,   0)'/>
	<use xlink:href='#gpPt6' transform='translate(952.8,298.8) scale(1.57)' color='rgb(  0,   0,   0)'/>
	<use xlink:href='#gpPt6' transform='translate(963.9,205.4) scale(1.57)' color='rgb(  0,   0,   0)'/>
</g>
	</g>
	<g id="gnuplot_plot_2" ><title>error</title>
<g fill="none" color="white" stroke="rgb(  0,   0,   0)" stroke-width="0.50" stroke-linecap="butt" stroke-linejoin="miter">
</g>
<g fill="none" color="black" stroke="currentColor" stroke-width="0.50" stroke-linecap="butt" stroke-linejoin="miter">
	<g transform="translate(907.9,76.0)" stroke="none" fill="black" font-family="Arial" font-size="12.00"  text-anchor="end">
		<text><tspan font-family="Arial" >error</tspan></text>
	</g>
</g>
<g fill="none" color="black" stroke="currentColor" stroke-width="0.50" stroke-linecap="butt" stroke-linejoin="miter">
	<path stroke='rgb(  0,   0,   0)'  d='M916.2,72.1 L958.4,72.1 M88.5,92.5 L99.6,205.4 L110.7,298.8 L121.7,273.7 L132.8,320.8 L143.9,298.0
		L155.0,326.9 L166.1,310.1 L177.2,329.3 L188.2,317.4 L199.3,330.5 L210.4,322.3 L221.5,331.2 L232.6,325.8
		L243.6,331.6 L254.7,328.4 L265.8,331.9 L276.9,330.5 L288.0,332.1 L299.0,332.2 L310.1,332.2 L321.2,333.7
		L332.3,332.3 L343.4,335.0 L354.5,332.4 L365.5,336.1 L376.6,332.4 L387.7,337.2 L398.8,332.5 L409.9,338.1
		L420.9,332.6 L432.0,338.9 L443.1,332.6 L454.2,339.7 L465.3,332.6 L476.3,340.5 L487.4,332.5 L498.5,341.3
		L509.6,332.6 L520.7,342.0 L531.8,332.6 L542.8,342.0 L553.9,332.6 L565.0,341.3 L576.1,332.6 L587.2,340.5
		L598.2,332.6 L609.3,339.8 L620.4,332.6 L631.5,338.9 L642.6,332.5 L653.6,338.1 L664.7,332.5 L675.8,337.1
		L686.9,332.5 L698.0,336.1 L709.1,332.4 L720.1,335.0 L731.2,332.3 L742.3,333.7 L753.4,332.2 L764.5,332.2
		L775.5,332.1 L786.6,330.5 L797.7,331.9 L808.8,328.4 L819.9,331.6 L830.9,325.8 L842.0,331.2 L853.1,322.3
		L864.2,330.5 L875.3,317.4 L886.4,329.3 L897.4,310.1 L908.5,326.8 L919.6,298.0 L930.7,320.8 L941.8,273.6
		L952.8,298.8 L963.9,205.4  '/></g>
	</g>
<g fill="none" color="white" stroke="rgb(  0,   0,   0)" stroke-width="2.00" stroke-linecap="butt" stroke-linejoin="miter">
</g>
<g fill="none" color="black" stroke="currentColor" stroke-width="2.00" stroke-linecap="butt" stroke-linejoin="miter">
</g>
<g fill="none" color="black" stroke="black" stroke-width="1.00" stroke-linecap="butt" stroke-linejoin="miter">
</g>
<g fill="none" color="black" stroke="currentColor" stroke-width="1.00" stroke-linecap="butt" stroke-linejoin="miter">
	<path stroke='black'  d='M88.5,54.1 L88.5,342.4 L975.0,342.4 L975.0,54.1 L88.5,54.1 Z  '/></g>
<g fill="none" color="black" stroke="currentColor" stroke-width="1.00" stroke-linecap="butt" stroke-linejoin="miter">
</g>
</g>
</svg>

